slides-3
…
Our (loose) structural model is then:

\[\text{logit}(E[\text{remission}_{ij}]) = \beta_0 + \beta_1(\text{experience}_i) + \beta_2(\text{Stage2}_{ij}) + \beta_3(\text{Stage3}_{ij}) + \beta_4(\text{Stage4}_{ij})\]

Example: cancer remission

Let’s get an idea of our data…

cancer %>% 
   group_by(doc_ID) %>% 
   summarize(n=n(), prop_remission=mean(remission, na.rm=T), mean_exp = mean(Experience, na.rm=T),
             prop_stageI = mean(CancerStage=="I", na.rm=T), prop_stageII = mean(CancerStage=="II", na.rm=T),
             prop_stageIII = mean(CancerStage=="III", na.rm=T), prop_stageIV = mean(CancerStage=="IV", na.rm=T))

# A tibble: 407 × 8
   doc_ID     n prop_remission mean_exp prop_stageI prop_stageII prop_stageIII
   <fct>  <int>          <dbl>    <dbl>       <dbl>        <dbl>         <dbl>
 1 1         28         0            25       0.321        0.571        0.0714
 2 2         32         0.375        14       0.406        0.344        0.125 
 3 3          6         0.667        19       0.667        0            0     
 4 4         30         0.267        18       0.3          0.433        0.2   
 5 5         18         0            17       0.444        0.444        0.0556
 6 6         34         0.0294       14       0.324        0.324        0.294 
 7 7         27         0.0370       16       0.259        0.481        0.148 
 8 8         32         0            21       0.344        0.375        0.0938
 9 9         23         0            14       0.261        0.435        0.174 
10 10        22         0.273        18       0.455        0.364        0.0455
# ℹ 397 more rows
# ℹ 1 more variable: prop_stageIV <dbl>
…
Let’s say we want to see whether the real per capita personal income of a county impacts its number of murders

Data from 1980

Assume clustering by state

Example: murders and income

Let’s get an idea of our data…

murder %>% 
   group_by(statefips) %>% 
   summarize(n=n(), mean_murders=mean(murders, na.rm=T), mean_capita = mean(rpcpersinc))

# A tibble: 46 × 4
   statefips     n mean_murders mean_capita
       <int> <int>        <dbl>       <dbl>
 1         1    62        6.65        8083.
 2         2     7        2.57       16705.
 3         5    73        2.81        8080.
 4         6    58       58.7        12820.
 5         8    55        2.91       11577.
 6         9     8       17.9        13732.
 7        10     3       14          11025.
 8        11     1      200          15197.
 9        15     3        6.33       11926.
10        16    41        0.707       9913.
# ℹ 36 more rows
…
